Manuscript Numbers
…
States

States with greated number of fires each by year were…

final %>% st_drop_geometry() %>% unnest(wildfire_states) %>% group_by(wildfire_states, wildfire_year) %>% summarize(n = n()) %>%
    group_by(wildfire_year) %>%
    filter(n == max(n)) %>%
    arrange(wildfire_year)

`summarise()` has grouped output by 'wildfire_states'. You can override using
the `.groups` argument.

# A tibble: 26 × 3
# Groups:   wildfire_year [26]
   wildfire_states wildfire_year     n
   <chr>                   <dbl> <int>
 1 OK                       2000    19
 2 CA                       2001    17
 3 CA                       2002    48
 4 CA                       2003    40
 5 CA                       2004    55
 6 OK                       2005    49
 7 TX                       2006    67
 8 SC                       2007    79
 9 TX                       2008    61
10 FL                       2009    44
# ℹ 16 more rows
…
