Manuscript Numbers
…
pre/post 2010

# A tibble: 2 × 5
  pre2010     n struct  fmag fatal
  <lgl>   <int>  <int> <int> <int>
1 FALSE    2798   2439   461    53
2 TRUE     2706   2360   552    16

State with most fires

`summarise()` has grouped output by 'wildfire_states'. You can override using
the `.groups` argument.

# A tibble: 27 × 3
# Groups:   wildfire_year [25]
   wildfire_states wildfire_year     n
   <chr>                   <dbl> <int>
 1 CA                       2002    57
 2 CA                       2003    48
 3 CA                       2004    71
 4 CA                       2012    48
 5 CA                       2013    39
 6 CA                       2014    33
 7 CA                       2017    73
 8 CA                       2019    25
 9 CA                       2020    56
10 CA                       2021    30
# ℹ 17 more rows
…
